[gd_scene load_steps=6 format=1]

[ext_resource path="res://Scripts/MeteorController.gd" type="Script" id=1]
[ext_resource path="res://Scenes/Meteor/Meteor.png" type="Texture" id=2]

[sub_resource type="CapsuleShape" id=1]

radius = 1.0
height = 1.0

[sub_resource type="Mesh" id=2]

resource/name = "Cube.001"
surfaces/0 = {
"alphasort": false,
"arrays": [ Vector3Array( -0.595153, 0.727864, -0.104637, -0.457049, 0.664841, -0.54349, -0.736957, 0.0978719, -0.223763, -0.00645006, 0.846201, -0.569223, 0.458106, 0.853269, -0.330459, -0.0100136, 0.16106, -0.870065, 0.603188, 1.01947, -0.159371, 0.463688, 0.902121, 0.206504, 0.755503, 0.483922, -0.123955, 0.0168768, 0.928356, 0.305215, -0.43592, 0.615477, 0.21831, 0.0381272, 0.201693, 0.483711, 0.537049, -0.388028, 0.000804931, 0.428151, -0.292844, 0.238164, -0.0941736, -0.661569, -0.254752, -0.595153, 0.727864, -0.104637, -0.43592, 0.615477, 0.21831, -0.0694557, 0.894288, -0.211287, -0.0694557, 0.894288, -0.211287, 0.463688, 0.902121, 0.206504, 0.603188, 1.01947, -0.159371, -0.0941736, -0.661569, -0.254752, -0.441186, -0.309994, 0.21831, -0.592705, -0.539418, -0.179493, 0.463688, 0.902121, 0.206504, 0.0381272, 0.201693, 0.483711, 0.594311, 0.370418, 0.405828, -0.457049, 0.664841, -0.54349, -0.0100136, 0.16106, -0.870065, -0.678863, 0.0910291, -0.978113, -0.678863, 0.0910291, -0.978113, -0.0100136, 0.16106, -0.870065, -0.543233, -0.482833, -0.862768, 0.594311, 0.370418, 0.405828, 0.0381272, 0.201693, 0.483711, 0.428151, -0.292844, 0.238164, 0.0381272, 0.201693, 0.483711, -0.441186, -0.309994, 0.21831, -0.0128784, -0.383226, 0.305215, 0.755503, 0.483922, -0.123955, 0.428151, -0.292844, 0.238164, 0.537049, -0.388028, 0.000804931, -0.0100136, 0.16106, -0.870065, 0.42536, -0.299788, -0.43778, -0.0403849, -0.598981, -0.792986, -0.736957, 0.0978719, -0.223763, -0.543233, -0.482833, -0.862768, -0.592705, -0.539418, -0.179493, -0.567647, 0.170717, 0.42756, -0.736957, 0.0978719, -0.223763, -0.441186, -0.309994, 0.21831, 0.5973, 0.174742, -0.650518, 0.755503, 0.483922, -0.123955, 0.42536, -0.299788, -0.43778, -0.0403849, -0.598981, -0.792986, -0.0941736, -0.661569, -0.254752, -0.543233, -0.482833, -0.862768, -0.00645006, 0.846201, -0.569223, -0.0694557, 0.894288, -0.211287, 0.458106, 0.853269, -0.330459, -0.457049, 0.664841, -0.54349, -0.0694557, 0.894288, -0.211287, -0.00645006, 0.846201, -0.569223, 0.42536, -0.299788, -0.43778, -0.0941736, -0.661569, -0.254752, -0.0403849, -0.598981, -0.792986, 0.458106, 0.853269, -0.330459, 0.755503, 0.483922, -0.123955, 0.5973, 0.174742, -0.650518, -0.43592, 0.615477, 0.21831, -0.736957, 0.0978719, -0.223763, -0.567647, 0.170717, 0.42756, -0.736957, 0.0978719, -0.223763, -0.592705, -0.539418, -0.179493, -0.441186, -0.309994, 0.21831, -0.0100136, 0.16106, -0.870065, -0.0403849, -0.598981, -0.792986, -0.543233, -0.482833, -0.862768, 0.755503, 0.483922, -0.123955, 0.537049, -0.388028, 0.000804931, 0.42536, -0.299788, -0.43778, 0.0381272, 0.201693, 0.483711, -0.0128784, -0.383226, 0.305215, 0.428151, -0.292844, 0.238164, -0.457049, 0.664841, -0.54349, -0.678863, 0.0910291, -0.978113, -0.736957, 0.0978719, -0.223763, -0.0694557, 0.894288, -0.211287, 0.0168768, 0.928356, 0.305215, 0.463688, 0.902121, 0.206504, -0.0941736, -0.661569, -0.254752, -0.0128784, -0.383226, 0.305215, -0.441186, -0.309994, 0.21831, 0.463688, 0.902121, 0.206504, 0.0168768, 0.928356, 0.305215, 0.0381272, 0.201693, 0.483711, -0.457049, 0.664841, -0.54349, -0.00645006, 0.846201, -0.569223, -0.0100136, 0.16106, -0.870065, 0.463688, 0.902121, 0.206504, 0.594311, 0.370418, 0.405828, 0.755503, 0.483922, -0.123955, -0.0941736, -0.661569, -0.254752, -0.592705, -0.539418, -0.179493, -0.543233, -0.482833, -0.862768, 0.0381272, 0.201693, 0.483711, -0.567647, 0.170717, 0.42756, -0.441186, -0.309994, 0.21831, 0.755503, 0.483922, -0.123955, 0.594311, 0.370418, 0.405828, 0.428151, -0.292844, 0.238164, -0.0100136, 0.16106, -0.870065, 0.5973, 0.174742, -0.650518, 0.42536, -0.299788, -0.43778, -0.736957, 0.0978719, -0.223763, -0.678863, 0.0910291, -0.978113, -0.543233, -0.482833, -0.862768, 0.458106, 0.853269, -0.330459, 0.5973, 0.174742, -0.650518, -0.0100136, 0.16106, -0.870065, -0.43592, 0.615477, 0.21831, -0.567647, 0.170717, 0.42756, 0.0381272, 0.201693, 0.483711, 0.428151, -0.292844, 0.238164, -0.0128784, -0.383226, 0.305215, -0.0941736, -0.661569, -0.254752, -0.43592, 0.615477, 0.21831, 0.0168768, 0.928356, 0.305215, -0.0694557, 0.894288, -0.211287, -0.457049, 0.664841, -0.54349, -0.595153, 0.727864, -0.104637, -0.0694557, 0.894288, -0.211287, 0.42536, -0.299788, -0.43778, 0.537049, -0.388028, 0.000804931, -0.0941736, -0.661569, -0.254752, 0.458106, 0.853269, -0.330459, 0.603188, 1.01947, -0.159371, 0.755503, 0.483922, -0.123955, -0.43592, 0.615477, 0.21831, -0.595153, 0.727864, -0.104637, -0.736957, 0.0978719, -0.223763, -0.0694557, 0.894288, -0.211287, 0.603188, 1.01947, -0.159371, 0.458106, 0.853269, -0.330459 ), Vector3Array( -0.908, 0.266, -0.324, -0.908, 0.266, -0.324, -0.908, 0.266, -0.324, 0.422, 0.363, -0.831, 0.422, 0.363, -0.831, 0.422, 0.363, -0.831, 0.866, 0.274, 0.418, 0.866, 0.274, 0.418, 0.866, 0.274, 0.418, -0.326, 0.216, 0.92, -0.326, 0.216, 0.92, -0.326, 0.216, 0.92, 0.2, -0.874, 0.442, 0.2, -0.874, 0.442, 0.2, -0.874, 0.442, -0.199, 0.891, 0.408, -0.199, 0.891, 0.408, -0.199, 0.891, 0.408, -0.195, 0.953, 0.231, -0.195, 0.953, 0.231, -0.195, 0.953, 0.231, -0.125, -0.838, 0.531, -0.125, -0.838, 0.531, -0.125, -0.838, 0.531, 0.023, 0.356, 0.934, 0.023, 0.356, 0.934, 0.023, 0.356, 0.934, 0.069, 0.585, -0.808, 0.069, 0.585, -0.808, 0.069, 0.585, -0.808, 0.173, -0.155, -0.973, 0.173, -0.155, -0.973, 0.173, -0.155, -0.973, 0.219, -0.29, 0.932, 0.219, -0.29, 0.932, 0.219, -0.29, 0.932, -0.235, -0.265, 0.935, -0.235, -0.265, 0.935, -0.235, -0.265, 0.935, 0.874, -0.153, 0.462, 0.874, -0.153, 0.462, 0.874, -0.153, 0.462, 0.644, -0.103, -0.758, 0.644, -0.103, -0.758, 0.644, -0.103, -0.758, -0.97, -0.226, -0.089, -0.97, -0.226, -0.089, -0.97, -0.226, -0.089, -0.895, -0.354, 0.272, -0.895, -0.354, 0.272, -0.895, -0.354, 0.272, 0.929, -0.365, -0.064, 0.929, -0.365, -0.064, 0.929, -0.365, -0.064, -0.205, -0.97, -0.133, -0.205, -0.97, -0.133, -0.205, -0.97, -0.133, 0.049, 0.991, -0.125, 0.049, 0.991, -0.125, 0.049, 0.991, -0.125, -0.376, 0.907, -0.188, -0.376, 0.907, -0.188, -0.376, 0.907, -0.188, 0.561, -0.827, -0.04, 0.561, -0.827, -0.04, 0.561, -0.827, -0.04, 0.798, 0.383, -0.465, 0.798, 0.383, -0.465, 0.798, 0.383, -0.465, -0.911, 0.362, 0.196, -0.911, 0.362, 0.196, -0.911, 0.362, 0.196, -0.884, -0.17, 0.435, -0.884, -0.17, 0.435, -0.884, -0.17, 0.435, 0.113, -0.105, -0.988, 0.113, -0.105, -0.988, 0.113, -0.105, -0.988, 0.918, -0.271, -0.288, 0.918, -0.271, -0.288, 0.918, -0.271, -0.288, 0.203, -0.302, 0.931, 0.203, -0.302, 0.931, 0.203, -0.302, 0.931, -0.91, 0.408, -0.074, -0.91, 0.408, -0.074, -0.91, 0.408, -0.074, 0.042, 0.996, -0.073, 0.042, 0.996, -0.073, 0.042, 0.996, -0.073, -0.24, -0.855, 0.46, -0.24, -0.855, 0.46, -0.24, -0.855, 0.46, 0.223, 0.239, 0.945, 0.223, 0.239, 0.945, 0.223, 0.239, 0.945, -0.21, 0.394, -0.895, -0.21, 0.394, -0.895, -0.21, 0.394, -0.895, 0.876, 0.343, 0.34, 0.876, 0.343, 0.34, 0.876, 0.343, 0.34, -0.251, -0.963, -0.098, -0.251, -0.963, -0.098, -0.251, -0.963, -0.098, -0.063, -0.412, 0.909, -0.063, -0.412, 0.909, -0.063, -0.412, 0.909, 0.931, -0.289, 0.221, 0.931, -0.289, 0.221, 0.931, -0.289, 0.221, 0.308, -0.48, -0.822, 0.308, -0.48, -0.822, 0.308, -0.48, -0.822, -0.967, -0.243, -0.072, -0.967, -0.243, -0.072, -0.967, -0.243, -0.072, 0.293, 0.456, -0.84, 0.293, 0.456, -0.84, 0.293, 0.456, -0.84, -0.105, 0.449, 0.887, -0.105, 0.449, 0.887, -0.105, 0.449, 0.887, 0.242, -0.882, 0.403, 0.242, -0.882, 0.403, 0.242, -0.882, 0.403, -0.573, 0.818, 0.042, -0.573, 0.818, 0.042, -0.573, 0.818, 0.042, -0.337, 0.911, -0.237, -0.337, 0.911, -0.237, -0.337, 0.911, -0.237, 0.477, -0.83, -0.288, 0.477, -0.83, -0.288, 0.477, -0.83, -0.288, 0.68, 0.146, -0.718, 0.68, 0.146, -0.718, 0.68, 0.146, -0.718, -0.876, 0.108, 0.47, -0.876, 0.108, 0.47, -0.876, 0.108, 0.47, -0.089, 0.751, -0.654, -0.089, 0.751, -0.654, -0.089, 0.751, -0.654 ), null, null, Vector3Array( 0.333533, 0.833333, 0, 0.333533, 0.9998, 0, 0.5, 0.833333, 0, 0.9998, 0.833333, 0, 0.9998, 0.666866, 0, 0.833333, 0.833333, 0, 0.5, 0.333533, 0, 0.333533, 0.333533, 0, 0.5, 0.5, 0, 0.166667, 0.333533, 0, 0.000199771, 0.333533, 0, 0.166667, 0.5, 0, 0.166667, 0.000199854, 0, 0.00019976, 0.000199795, 0, 0.166667, 0.166667, 0, 0.166667, 0.666866, 0, 0.000199782, 0.666866, 0, 0.166667, 0.833333, 0, 0.166667, 0.833333, 0, 0.00019976, 0.9998, 0, 0.166667, 0.9998, 0, 0.166667, 0.166667, 0, 0.00019976, 0.333134, 0, 0.166667, 0.333134, 0, 0.333134, 0.333533, 0, 0.166667, 0.5, 0, 0.333134, 0.5, 0, 0.9998, 0.9998, 0, 0.833333, 0.833333, 0, 0.833333, 0.9998, 0, 0.833333, 0.9998, 0, 0.833333, 0.833333, 0, 0.666866, 0.9998, 0, 0.333134, 0.5, 0, 0.166667, 0.5, 0, 0.333134, 0.666467, 0, 0.166667, 0.5, 0, 0.00019976, 0.666467, 0, 0.166667, 0.666467, 0, 0.5, 0.5, 0, 0.333533, 0.666467, 0, 0.5, 0.666467, 0, 0.833333, 0.833333, 0, 0.666866, 0.666866, 0, 0.666866, 0.833333, 0, 0.5, 0.833333, 0, 0.666467, 0.9998, 0, 0.666467, 0.833333, 0, 0.5, 0.666866, 0, 0.5, 0.833333, 0, 0.666467, 0.666866, 0, 0.666467, 0.5, 0, 0.5, 0.5, 0, 0.666467, 0.666467, 0, 0.333134, 0.166667, 0, 0.166667, 0.166667, 0, 0.333134, 0.333134, 0, 0.333134, 0.833333, 0, 0.166667, 0.833333, 0, 0.333134, 0.9998, 0, 0.333134, 0.666866, 0, 0.166667, 0.833333, 0, 0.333134, 0.833333, 0, 0.333134, 0.000199795, 0, 0.166667, 0.166667, 0, 0.333134, 0.166667, 0, 0.666467, 0.333533, 0, 0.5, 0.5, 0, 0.666467, 0.5, 0, 0.333533, 0.666866, 0, 0.5, 0.833333, 0, 0.5, 0.666866, 0, 0.5, 0.833333, 0, 0.666467, 0.833333, 0, 0.666467, 0.666866, 0, 0.833333, 0.833333, 0, 0.666866, 0.833333, 0, 0.666866, 0.9998, 0, 0.5, 0.5, 0, 0.5, 0.666467, 0, 0.666467, 0.666467, 0, 0.166667, 0.5, 0, 0.166667, 0.666467, 0, 0.333134, 0.666467, 0, 0.333533, 0.9998, 0, 0.5, 0.9998, 0, 0.5, 0.833333, 0, 0.166667, 0.833333, 0, 0.000199782, 0.833333, 0, 0.00019976, 0.9998, 0, 0.166667, 0.166667, 0, 0.00019976, 0.166667, 0, 0.00019976, 0.333134, 0, 0.333134, 0.333533, 0, 0.166667, 0.333533, 0, 0.166667, 0.5, 0, 0.9998, 0.9998, 0, 0.9998, 0.833333, 0, 0.833333, 0.833333, 0, 0.333533, 0.333533, 0, 0.333533, 0.5, 0, 0.5, 0.5, 0, 0.166667, 0.166667, 0, 0.166667, 0.333134, 0, 0.333134, 0.333134, 0, 0.166667, 0.5, 0, 0.000199771, 0.5, 0, 0.00019976, 0.666467, 0, 0.5, 0.5, 0, 0.333533, 0.5, 0, 0.333533, 0.666467, 0, 0.833333, 0.833333, 0, 0.833333, 0.666866, 0, 0.666866, 0.666866, 0, 0.5, 0.833333, 0, 0.5, 0.9998, 0, 0.666467, 0.9998, 0, 0.9998, 0.666866, 0, 0.833333, 0.666866, 0, 0.833333, 0.833333, 0, 0.000199771, 0.333533, 0, 0.000199771, 0.5, 0, 0.166667, 0.5, 0, 0.00019976, 0.000199795, 0, 0.00019976, 0.166667, 0, 0.166667, 0.166667, 0, 0.000199782, 0.666866, 0, 0.000199782, 0.833333, 0, 0.166667, 0.833333, 0, 0.333134, 0.666866, 0, 0.166667, 0.666866, 0, 0.166667, 0.833333, 0, 0.333134, 0.000199795, 0, 0.166667, 0.000199854, 0, 0.166667, 0.166667, 0, 0.666467, 0.333533, 0, 0.5, 0.333533, 0, 0.5, 0.5, 0, 0.333533, 0.666866, 0, 0.333533, 0.833333, 0, 0.5, 0.833333, 0, 0.166667, 0.833333, 0, 0.166667, 0.9998, 0, 0.333134, 0.9998, 0 ), null, null, null, IntArray( 0, 2, 1, 3, 5, 4, 6, 8, 7, 9, 11, 10, 12, 14, 13, 15, 17, 16, 18, 20, 19, 21, 23, 22, 24, 26, 25, 27, 29, 28, 30, 32, 31, 33, 35, 34, 36, 38, 37, 39, 41, 40, 42, 44, 43, 45, 47, 46, 48, 50, 49, 51, 53, 52, 54, 56, 55, 57, 59, 58, 60, 62, 61, 63, 65, 64, 66, 68, 67, 69, 71, 70, 72, 74, 73, 75, 77, 76, 78, 80, 79, 81, 83, 82, 84, 86, 85, 87, 89, 88, 90, 92, 91, 93, 95, 94, 96, 98, 97, 99, 101, 100, 102, 104, 103, 105, 107, 106, 108, 110, 109, 111, 113, 112, 114, 116, 115, 117, 119, 118, 120, 122, 121, 123, 125, 124, 126, 128, 127, 129, 131, 130, 132, 134, 133, 135, 137, 136, 138, 140, 139, 141, 143, 142 ) ],
"morph_arrays": [  ],
"primitive": 4
}
custom_aabb/custom_aabb = AABB( 0, 0, 0, 0, 0, 0 )

[sub_resource type="FixedMaterial" id=3]

flags/visible = true
flags/double_sided = false
flags/invert_faces = false
flags/unshaded = false
flags/on_top = false
flags/lightmap_on_uv2 = true
flags/colarray_is_srgb = true
params/blend_mode = 0
params/depth_draw = 1
params/line_width = 0.0
fixed_flags/use_alpha = false
fixed_flags/use_color_array = false
fixed_flags/use_point_size = false
fixed_flags/discard_alpha = false
fixed_flags/use_xy_normalmap = false
params/diffuse = Color( 1, 1, 1, 1 )
params/specular = Color( 0, 0, 0, 1 )
params/emission = Color( 0, 0, 0, 1 )
params/specular_exp = 40
params/detail_mix = 1.0
params/normal_depth = 1
params/shader = 0
params/shader_param = 0.5
params/glow = 0
params/point_size = 1.0
uv_xform = Transform( 1, 0, 0, 0, 1, 0, 0, 0, 1, 0, 0, 0 )
textures/diffuse = ExtResource( 2 )
textures/diffuse_tc = 0
textures/detail_tc = 0
textures/specular_tc = 0
textures/emission_tc = 0
textures/specular_exp_tc = 0
textures/glow_tc = 0
textures/normal_tc = 0
textures/shade_param_tc = 0

[node name="Meteor" type="RigidBody" groups=[
"meteors",
]]

_import_path = NodePath(".")
_import_transform = Transform( 1, 0, 0, 0, 1, 0, 0, 0, 1, 0, 0, 0 )
input/ray_pickable = true
input/capture_on_drag = false
shape_count = 1
shapes/0/shape = SubResource( 1 )
shapes/0/transform = Transform( 1.25715, 0.0858267, 0.543404, -0.466626, 0.884318, 0.939858, -0.291401, -1.0458, 0.839327, 0, 0.341278, -0.463081 )
shapes/0/trigger = true
collision/layers = 1
collision/mask = 1
mode = 0
mass = 1.0
friction = 0.5
bounce = 0.0
gravity_scale = 0.0
custom_integrator = false
continuous_cd = false
contacts_reported = 0
contact_monitor = false
sleeping = false
can_sleep = true
axis_lock = 0
velocity/linear = Vector3( 0, 0, 0 )
velocity/angular = Vector3( 0, 0, 0 )
damp_override/linear = -1.0
damp_override/angular = -1.0
script/script = ExtResource( 1 )
speed = 2.3
debug_mode = false
health_points = 1
points = 5

[node name="Area" type="Area" parent="."]

_import_transform = Transform( 1, 0, 0, 0, 1, 0, 0, 0, 1, 0, 0, 0 )
input/ray_pickable = false
input/capture_on_drag = false
shape_count = 1
shapes/0/shape = SubResource( 1 )
shapes/0/transform = Transform( 1.88567, 0.128736, 0.81508, -0.699916, 1.32643, 1.40974, -0.437087, -1.56866, 1.25895, -0.109009, 0.341278, -0.900337 )
shapes/0/trigger = true
space_override = 0
gravity_point = false
gravity_distance_scale = 0.0
gravity_vec = Vector3( 0, -1, 0 )
gravity = 9.8
linear_damp = 0.1
angular_damp = 1.0
priority = 0.0
monitoring = true
monitorable = true
collision/layers = 1
collision/mask = 1

[node name="Meteor" type="MeshInstance" parent="Area"]

_import_path = NodePath("Meteor")
_import_transform = Transform( 1, 0, 0, 0, 1, 0, 0, 0, 1, 0, 0, 0 )
transform/local = Transform( 3, 0, 0, 0, 3, 0, 0, 0, 3, 0, 0, 0 )
layers = 1
geometry/visible = true
geometry/material_override = null
geometry/cast_shadow = 1
geometry/receive_shadows = true
geometry/range_begin = 0.0
geometry/range_end = 0.0
geometry/extra_cull_margin = 0.0
geometry/billboard = false
geometry/billboard_y = false
geometry/depth_scale = false
geometry/visible_in_all_rooms = false
geometry/use_baked_light = true
geometry/baked_light_tex_id = 0
mesh/mesh = SubResource( 2 )
mesh/skeleton = NodePath("..")
material/0 = SubResource( 3 )

[node name="CollisionShape" type="CollisionShape" parent="Area"]

_import_transform = Transform( 1, 0, 0, 0, 1, 0, 0, 0, 1, 0, 0, 0 )
transform/local = Transform( 1.88567, 0.128736, 0.81508, -0.699916, 1.32643, 1.40974, -0.437087, -1.56866, 1.25895, -0.109009, 0.341278, -0.900337 )
shape = SubResource( 1 )
trigger = true
_update_shape_index = 0

[connection signal="area_enter" from="Area" to="." method="_on_Area_area_enter"]


