<?xml version="1.0" encoding="UTF-8" standalone="no"?>
<!-- Created with Inkscape (http://www.inkscape.org/) -->

<svg
   xmlns:dc="http://purl.org/dc/elements/1.1/"
   xmlns:cc="http://creativecommons.org/ns#"
   xmlns:rdf="http://www.w3.org/1999/02/22-rdf-syntax-ns#"
   xmlns:svg="http://www.w3.org/2000/svg"
   xmlns="http://www.w3.org/2000/svg"
   xmlns:sodipodi="http://sodipodi.sourceforge.net/DTD/sodipodi-0.dtd"
   xmlns:inkscape="http://www.inkscape.org/namespaces/inkscape"
   width="210mm"
   height="297mm"
   viewBox="0 0 210 297"
   version="1.1"
   id="svg109"
   inkscape:version="0.92.2 (5c3e80d, 2017-08-06)"
   sodipodi:docname="enemy_ship.svg"
   inkscape:export-filename="F:\Projects\Inkscape\Space Shooter\raster\enemy_spaceship.png"
   inkscape:export-xdpi="96"
   inkscape:export-ydpi="96">
  <defs
     id="defs103" />
  <sodipodi:namedview
     id="base"
     pagecolor="#ffffff"
     bordercolor="#666666"
     borderopacity="1.0"
     inkscape:pageopacity="0.0"
     inkscape:pageshadow="2"
     inkscape:zoom="0.98994949"
     inkscape:cx="211.08649"
     inkscape:cy="774.11463"
     inkscape:document-units="mm"
     inkscape:current-layer="layer1"
     showgrid="false"
     inkscape:window-width="1920"
     inkscape:window-height="1017"
     inkscape:window-x="-8"
     inkscape:window-y="-8"
     inkscape:window-maximized="1" />
  <metadata
     id="metadata106">
    <rdf:RDF>
      <cc:Work
         rdf:about="">
        <dc:format>image/svg+xml</dc:format>
        <dc:type
           rdf:resource="http://purl.org/dc/dcmitype/StillImage" />
        <dc:title />
      </cc:Work>
    </rdf:RDF>
  </metadata>
  <g
     inkscape:label="Layer 1"
     inkscape:groupmode="layer"
     id="layer1">
    <path
       style="fill:none;fill-rule:evenodd;stroke:#000000;stroke-width:0.24072908px;stroke-linecap:butt;stroke-linejoin:miter;stroke-opacity:1"
       d="M 106.35109,145.68194 C 86.296683,144.78459 77.491973,137.58697 77.491973,137.58697 L 85.030341,125.42832 71.169473,94.30216 c 0,0 2.992483,-32.552972 34.797557,-86.9423211"
       id="path3699"
       inkscape:connector-curvature="0"
       sodipodi:nodetypes="ccccc" />
    <path
       style="fill:none;fill-rule:evenodd;stroke:#000000;stroke-width:0.24072908px;stroke-linecap:butt;stroke-linejoin:miter;stroke-opacity:1"
       d="m 69.681007,96.18666 13.240099,28.88748 -6.963947,11.26269 c 0,0 -31.129174,-8.88413 -56.896075,-40.731798 25.594693,3.512212 31.358236,3.785555 50.619923,0.581628 z"
       id="path8"
       inkscape:connector-curvature="0"
       sodipodi:nodetypes="ccccc" />
    <path
       style="fill:none;fill-rule:evenodd;stroke:#000000;stroke-width:0.24840669px;stroke-linecap:butt;stroke-linejoin:miter;stroke-opacity:1"
       d="m 35.195837,221.06675 c 0,0 44.99439,-11.13918 86.328053,-13.51943 28.08244,-1.61716 44.09948,6.923 44.09948,6.923 l 6.949,5.4185 -6.68173,4.71174 c 0,0 -19.45357,9.15227 -45.43582,8.00995 -16.83334,-0.74009 -47.039444,-10.87275 -85.258983,-11.54376 z"
       id="path199"
       inkscape:connector-curvature="0"
       sodipodi:nodetypes="cscccsc" />
    <path
       style="fill:none;fill-rule:evenodd;stroke:#000000;stroke-width:0.24072908px;stroke-linecap:butt;stroke-linejoin:miter;stroke-opacity:1"
       d="m 105.58297,145.68194 c 20.05441,-0.89735 28.85912,-8.09497 28.85912,-8.09497 l -7.53837,-12.15865 13.86087,-31.126155 c 0,0 -2.99249,-32.55297 -34.79756,-86.9423261"
       id="path3699-1"
       inkscape:connector-curvature="0"
       sodipodi:nodetypes="ccccc" />
    <path
       style="fill:none;fill-rule:evenodd;stroke:#000000;stroke-width:0.24072908px;stroke-linecap:butt;stroke-linejoin:miter;stroke-opacity:1"
       d="m 142.25305,96.186665 -13.2401,28.887475 6.96395,11.26269 c 0,0 31.12917,-8.88413 56.89608,-40.731795 -25.5947,3.51221 -31.35824,3.78555 -50.61993,0.58163 z"
       id="path8-5"
       inkscape:connector-curvature="0"
       sodipodi:nodetypes="ccccc" />
    <path
       style="fill:#ffffff;stroke-width:1.01015258"
       d="m 379.34687,547.84554 c -21.59159,-2.61782 -40.92011,-7.37418 -59.46483,-14.63309 -12.57624,-4.92269 -26.11585,-12.68496 -25.09657,-14.3879 0.40127,-0.67042 6.30965,-10.19727 13.12972,-21.17077 6.82008,-10.97351 12.85642,-20.80441 13.41411,-21.84645 0.81522,-1.52326 -4.13452,-13.45217 -25.25321,-60.86037 l -26.26717,-58.96576 1.13783,-7.07107 c 8.41007,-52.26457 30.83928,-119.74707 65.13456,-195.96959 12.7507,-28.33892 54.18292,-107.557385 63.1061,-120.658958 1.47685,-2.168403 1.79029,-1.776249 9.78086,12.237289 53.70904,94.192769 93.83878,188.746329 113.32486,267.015619 3.49573,14.04125 8.01372,36.82143 8.31716,41.93604 0.15967,2.69114 -5.69579,16.73216 -24.84814,59.58429 -13.78135,30.83491 -25.51661,57.23814 -26.07834,58.67385 -0.92138,2.35497 0.34684,4.81507 12.96168,25.14303 l 13.98297,22.53265 -2.46054,1.99449 c -4.57226,3.70626 -21.90811,11.76889 -33.93829,15.78417 -14.70664,4.90861 -31.87704,8.5815 -49.83953,10.66112 -16.06204,1.85959 -25.71432,1.85991 -41.04323,0.001 z"
       id="path12"
       inkscape:connector-curvature="0"
       transform="scale(0.26458333)" />
    <path
       style="fill:#ffffff;stroke-width:1.01015258"
       d="M 273.91798,509.62414 C 207.27219,484.56524 137.27196,434.9204 86.008556,376.35697 74.194968,362.8611 73.741101,362.13815 77.58741,362.94306 c 6.3716,1.33338 51.53592,6.70817 69.55643,8.27757 33.03926,2.87738 67.04761,1.24155 106.0533,-5.10125 4.99326,-0.81196 9.36696,-1.15238 9.71932,-0.75647 0.35237,0.3959 11.60718,24.7001 25.01069,54.00933 l 24.37002,53.28951 -12.78125,20.70417 c -7.02968,11.38729 -13.05123,20.6866 -13.38121,20.66514 -0.32999,-0.0214 -5.82751,-2.00456 -12.21673,-4.40692 z"
       id="path14"
       inkscape:connector-curvature="0"
       transform="scale(0.26458333)" />
    <path
       style="fill:#ffffff;stroke-width:1.01015258"
       d="m 512.0085,510.33536 c -12.65663,-20.10318 -22.32311,-36.4259 -22.36814,-37.77064 -0.0301,-0.90008 10.85484,-25.58498 24.18885,-54.85532 l 24.24366,-53.21879 3.02684,0.56805 c 9.19943,1.72647 39.22627,5.65874 51.01633,6.68103 16.67325,1.44571 54.32345,0.65059 74.24621,-1.56796 18.26219,-2.03363 53.69562,-6.51524 57.49279,-7.27168 2.8201,-0.56179 2.67069,-0.25304 -3.53553,7.30572 -9.78488,11.9173 -38.86229,41.33303 -52.7521,53.36585 -24.15172,20.92278 -53.79983,42.20335 -78.98691,56.69456 -15.00453,8.63274 -42.63133,22.0233 -57.02334,27.6389 -18.14226,7.0789 -16.73232,6.90362 -19.54866,2.43028 z"
       id="path16"
       inkscape:connector-curvature="0"
       transform="scale(0.26458333)" />
    <path
       style="fill:#ffffff;stroke-width:1.01015258"
       d="M 446.65407,877.69231 C 429.91767,876.0927 410.06396,872.76472 361.80125,863.46886 263.65153,844.56429 215.06622,837.8947 157.75044,835.45759 l -16.66752,-0.70872 9.59645,-2.30538 c 5.27805,-1.26796 20.05153,-4.52939 32.82996,-7.24762 83.67674,-17.79976 166.38647,-30.58231 243.04057,-37.56122 33.10672,-3.01418 85.08055,-3.25032 106.47221,-0.48376 29.7969,3.85359 55.20603,9.67946 75.90281,17.40316 13.90107,5.18765 15.47283,6.09093 29.36409,16.87526 l 12.33287,9.57448 -11.8278,8.37355 c -13.23269,9.36817 -16.2347,10.85342 -35.38578,17.50718 -24.72424,8.59008 -58.06842,15.90817 -88.08574,19.33229 -16.58583,1.89197 -55.55104,2.72923 -68.66849,1.4755 z"
       id="path18"
       inkscape:connector-curvature="0"
       transform="scale(0.26458333)" />
    <path
       style="fill:#ffffff;stroke-width:1.01015258"
       d="m 387.05507,548.81005 c -24.34718,-3.00396 -39.7119,-6.16358 -56.56854,-11.63284 -9.72994,-3.15694 -29.96751,-12.53331 -34.05378,-15.77763 l -2.23396,-1.77367 13.69533,-22.11643 c 11.14414,-17.99655 13.59409,-22.62259 13.1519,-24.83354 -0.29888,-1.49441 -11.96163,-28.36207 -25.91722,-59.70592 l -25.3738,-56.98882 1.66687,-10.10152 c 8.30502,-50.32976 32.07822,-121.42115 64.18169,-191.92899 13.96608,-30.67326 42.84021,-86.478707 59.26388,-114.540128 l 5.55091,-9.484264 2.74459,4.433501 c 18.78105,30.338127 55.10378,102.143721 73.87919,146.050091 25.62626,59.92713 46.47645,125.79634 52.70595,166.50688 l 1.39527,9.11832 -26.1236,58.78455 c -25.35358,57.05179 -26.08042,58.86805 -24.65846,61.61781 0.80583,1.5583 7.12083,11.95364 14.03335,23.10075 l 12.56819,20.26747 -4.14296,2.6197 c -17.45512,11.03734 -43.90269,19.78487 -74.02219,24.4828 -10.00847,1.56109 -35.20141,2.70893 -41.74261,1.90188 z"
       id="path20"
       inkscape:connector-curvature="0"
       transform="scale(0.26458333)" />
  </g>
</svg>
